{
	"name": "protonvpn",
	"authors":
    [
		"Peter Varo"
	],
	"description": "ProtonVPN Connection Manager",
	"copyright": "Copyright (C) 2018-2019, Peter Varo",
	"license": "GPL-3.0",
    "stringImportPaths":
    [
        "."
    ],
    "dependencies":
    {
        "pseudo":
        {
            "path": "../pseudo"
        }
    },
    "postRunCommands":
    [
        "bash move-coverage-reports.sh"
    ]
}
